[api-updater (non-obsolete-error-filter)] 02/04/2021 12:46:08 : Starting C:/Program Files/Unity/Hub/Editor/2020.3.0f1/Editor/Data/Tools/ScriptUpdater/APIUpdater.NonObsoleteApiUpdaterDetector.exe
[api-updater (non-obsolete-error-filter)] 
----------------------------------
jit/startup time      : 145,6091ms
moved types parse time: 79ms
candidates parse time : 1ms
C# parse time         : 307ms
candidates check time : 50ms
console write time    : 0ms

[api-updater (non-obsolete-error-filter)] 02/04/2021 12:47:44 : Starting C:/Program Files/Unity/Hub/Editor/2020.3.0f1/Editor/Data/Tools/ScriptUpdater/APIUpdater.NonObsoleteApiUpdaterDetector.exe
[api-updater (non-obsolete-error-filter)] 
----------------------------------
jit/startup time      : 83,7746ms
moved types parse time: 61ms
candidates parse time : 1ms
C# parse time         : 214ms
candidates check time : 30ms
console write time    : 0ms

[api-updater (non-obsolete-error-filter)] 02/04/2021 12:47:44 : Starting C:/Program Files/Unity/Hub/Editor/2020.3.0f1/Editor/Data/Tools/ScriptUpdater/APIUpdater.NonObsoleteApiUpdaterDetector.exe
[api-updater (non-obsolete-error-filter)] 
----------------------------------
jit/startup time      : 63,6781ms
moved types parse time: 54ms
candidates parse time : 1ms
C# parse time         : 276ms
candidates check time : 33ms
console write time    : 0ms

